{
  "index.pug": "index.html",
  "../../js/index.js": "js.e43941f0.js",
  "../../images/pin.svg": "pin.041c314b.svg",
  "../../styles/styles.scss": "styles.9316f574.css",
  "../../fonts/Montserrat-Regular.woff": "Montserrat-Regular.cc42fec2.woff",
  "../../fonts/Montserrat-Regular.woff2": "Montserrat-Regular.ac4c05ba.woff2",
  "../../fonts/Montserrat-Bold.woff": "Montserrat-Bold.258148f4.woff",
  "../../fonts/Montserrat-Bold.woff2": "Montserrat-Bold.9f4eb483.woff2",
  "../../fonts/Montserrat-Light.woff": "Montserrat-Light.43ba5e0e.woff",
  "../../fonts/Montserrat-Light.woff2": "Montserrat-Light.57f97785.woff2",
  "../../fonts/Montserrat-ExtraBold.woff": "Montserrat-ExtraBold.0595f226.woff",
  "../../fonts/Montserrat-ExtraBold.woff2": "Montserrat-ExtraBold.2c110fb1.woff2",
  "../../fonts/Montserrat-SemiBold.woff": "Montserrat-SemiBold.c7f2d8fd.woff",
  "../../fonts/Montserrat-SemiBold.woff2": "Montserrat-SemiBold.7af6687b.woff2",
  "../../fonts/Montserrat-Medium.woff": "Montserrat-Medium.2f91cf9b.woff",
  "../../fonts/Montserrat-Medium.woff2": "Montserrat-Medium.0ebfd9f0.woff2",
  "../../fonts/Montserrat-Black.woff": "Montserrat-Black.384b9a45.woff",
  "../../fonts/Montserrat-Black.woff2": "Montserrat-Black.ea06ea3c.woff2",
  "../../images/slide-1.jpg": "slide-1.63ae0be8.jpg",
  "../../images/back-img.png": "back-img.b0048497.png",
  "../../images/fix-img-2.png": "fix-img-2.f7960cec.png",
  "../../images/loupe.svg": "loupe.b4f89be4.svg",
  "../../images/fix-img.png": "fix-img.0def4246.png",
  "../../images/fix-img-3.png": "fix-img-3.c629e622.png",
  "../../images/offer-example-icon.png": "offer-example-icon.a86c6f11.png",
  "../../images/main-logo.svg": "main-logo.2973a591.svg",
  "industries.pug": "industries.html",
  "printing.pug": "printing.html",
  "offers.pug": "offers.html",
  "stamps.pug": "stamps.html",
  "video.pug": "video.html",
  "contacts.pug": "contacts.html",
  "../../images/mobile-menu-arrow.svg": "mobile-menu-arrow.f60ff3f5.svg",
  "../../images/appstore.svg": "appstore.e8d90930.svg",
  "../../images/googleplay.svg": "googleplay.3a2a2ad7.svg",
  "../../images/appgallery.svg": "appgallery.d3358b93.svg",
  "../../images/breadcrumbs-arrow.svg": "breadcrumbs-arrow.8ba505c0.svg",
  "../../images/contact-fb.svg": "contact-fb.cc265bf7.svg",
  "../../images/contact-vk.svg": "contact-vk.65b3a012.svg",
  "../../images/contact-inst.svg": "contact-inst.e51f6d12.svg",
  "../../images/contact-yt.svg": "contact-yt.5acba67b.svg",
  "../../images/phone-icon.svg": "phone-icon.cb0f2a79.svg",
  "../../images/flag-left.svg": "flag-left.bbedebec.svg",
  "../../images/flag-right.svg": "flag-right.922a0b1d.svg",
  "../../images/like.svg": "like.94a6d827.svg",
  "../../images/arrow-right.svg": "arrow-right.1cb82372.svg",
  "../../images/footer-fb.svg": "footer-fb.340ff45d.svg",
  "../../images/footer-vk.svg": "footer-vk.2230160d.svg",
  "../../images/footer-insta.svg": "footer-insta.2ecab634.svg",
  "../../images/footer-youtube.svg": "footer-youtube.05e0f6ba.svg",
  "../../images/agrocom-logo.svg": "agrocom-logo.3f44a9fd.svg",
  "../../images/ytube.svg": "ytube.22544d07.svg",
  "../../images/close.svg": "close.5932f9bf.svg",
  "../../images/breadcrumbs-arrow-right-white.svg": "breadcrumbs-arrow-right-white.c3ac6feb.svg",
  "../../images/pdf.svg": "pdf.24baee87.svg",
  "../../images/docx.svg": "docx.a757c46c.svg",
  "../../images/stumbs-icon-1.svg": "stumbs-icon-1.ce874c73.svg",
  "../../images/stumbs-icon-2.svg": "stumbs-icon-2.bd592fa8.svg",
  "../../images/todo-icon-1.svg": "todo-icon-1.6452413f.svg",
  "../../images/todo-next-arrow.svg": "todo-next-arrow.778a6241.svg",
  "../../images/todo-icon-2.svg": "todo-icon-2.47a45ecd.svg",
  "../../images/todo-icon-3.svg": "todo-icon-3.97e10efb.svg",
  "../../images/todo-down-arrow.svg": "todo-down-arrow.0998f2b0.svg",
  "../../images/stamps-form.jpg": "stamps-form.916da927.jpg",
  "../../images/stamps-slider-img.jpg": "stamps-slider-img.cbdd04f3.jpg",
  "../../images/slider-arrow-left.svg": "slider-arrow-left.c6152873.svg",
  "../../images/slider-arrow-right.svg": "slider-arrow-right.fe13a7ca.svg",
  "offer-example.pug": "offer-example.html",
  "../../images/offers-img-1.jpg": "offers-img-1.377a38a2.jpg",
  "../../images/offers-img-2.jpg": "offers-img-2.93f601ed.jpg",
  "../../images/offers-img-3.jpg": "offers-img-3.10919dce.jpg",
  "../../images/offers-img-4.jpg": "offers-img-4.3e18f3d3.jpg",
  "../../images/icon-print.svg": "icon-print.0d960818.svg",
  "../../images/print-icon-1.svg": "print-icon-1.e333b5a2.svg",
  "../../images/print-icon-2.svg": "print-icon-2.b32cfd41.svg",
  "../../images/print-icon-3.svg": "print-icon-3.9e3906c2.svg",
  "../../images/print-icon-4.svg": "print-icon-4.f4ba502f.svg",
  "../../images/print-icon-5.svg": "print-icon-5.0f5ca062.svg",
  "../../images/print-icon-6.svg": "print-icon-6.69973175.svg",
  "../../images/oval-1.svg": "oval-1.f7511d99.svg",
  "../../images/oval-2.svg": "oval-2.9c4751e3.svg",
  "../../images/oval-3.svg": "oval-3.6b51f064.svg",
  "../../images/oval-4.svg": "oval-4.df9fa8b0.svg",
  "../../images/gallery-1.jpg": "gallery-1.89bba50c.jpg",
  "../../images/gallery-2.jpg": "gallery-2.3c2927ea.jpg",
  "../../images/gallery-3.jpg": "gallery-3.f37c76f7.jpg",
  "../../images/gallery-4.jpg": "gallery-4.43c1d23f.jpg",
  "../../images/gallery-5.jpg": "gallery-5.b803606c.jpg",
  "../../images/gallery-6.jpg": "gallery-6.a0af0c12.jpg",
  "../../images/gallery-7.jpg": "gallery-7.1c41b1ec.jpg",
  "../../images/gallery-8.jpg": "gallery-8.34a215a4.jpg",
  "../../images/more-arrow.svg": "more-arrow.20a61968.svg",
  "../../images/batterfly.svg": "batterfly.3c56332e.svg",
  "../../images/print-1.svg": "print-1.b80cdcaa.svg",
  "../../images/print-2.svg": "print-2.c3f168e1.svg"
}